[
    {
        "image": "https://www.projectmugen.com/pc/gw/20230811194459/assets/1_f2e0afdc.jpg",
        "title": "AnImg"
    },
    {
        "image": "https://www.projectmugen.com/pc/gw/20230811194459/assets/2_6e55cfe2.jpg",
        "title": "AnImg"
    },
    {
        "image": "https://www.projectmugen.com/pc/gw/20230811194459/assets/3_7b156bf4.jpg",
        "title": "AnImg"
    },
    {
        "image": "https://www.projectmugen.com/pc/gw/20230811194459/assets/4_4eff7293.jpg",
        "title": "AnImg"
    },
    {
        "image": "https://www.projectmugen.com/pc/gw/20230811194459/assets/5_6d56c17d.jpg",
        "title": "AnImg"
    },
    {
        "image": "https://www.projectmugen.com/pc/gw/20230811194459/assets/6_6fd7f855.jpg",
        "title": "AnImg"
    },
    {
        "image": "https://www.projectmugen.com/pc/gw/20230811194459/assets/7_255ef6d2.jpg",
        "title": "AnImg"
    },
    {
        "image": "https://www.projectmugen.com/pc/gw/20230811194459/assets/8_a8dd538b.jpg",
        "title": "AnImg"
    }
]